{
  "manifestVersion": "2.2",
  "contracts": {},
  "dependencies": {},
  "name": "mooncatrescue-wrapper",
  "version": "1.0.0",
  "compiler": {
    "compilerSettings": {
      "optimizer": {
        "enabled": false,
        "runs": "200"
      }
    },
    "typechain": {
      "enabled": false
    },
    "manager": "openzeppelin",
    "solcVersion": "0.6.12",
    "artifactsDir": "build/contracts",
    "contractsDir": "contracts"
  },
  "telemetryOptIn": false
}
